,Cat10,Cat20,Cat30,Cat40.50,Cat60,Cat70,Cat80,Cat100.101,Cat102,Cat110.111.113,Cat120.121,Cat122
AI01,1,4,18,17,0,3,4,23,0,0,0,0
AI02,0,8,24,121,0,1,0,4,1,0,0,0
AI03,0,0,986,874,1,69,10,26,2,22,0,0
AI04,0,0,254,248,0,54,0,51,2,1,0,0
AO03,0,0,55,88,0,10,12,31,4,17,0,0
AI05,0,0,181,413,4,72,38,111,4,21,0,0
AO01,0,0,43,91,4,7,2,36,13,12,0,0
AI07,0,0,140,212,3,33,11,47,14,20,0,0
AI08,0,0,154,272,0,74,38,123,6,30,0,0
AO02,0,6,177,507,3,36,26,231,6,82,0,0
AI06,0,0,66,187,0,16,25,106,0,15,66,14
AO04,0,0,1,40,0,4,1,21,0,22,0,0
APQR01,0,0,24,332,0,40,18,128,12,94,58,34
APQR02,0,0,15,174,0,5,4,77,5,78,9,5
AO05,0,0,0,17,0,0,0,10,1,18,0,0
APQR03,0,0,31,288,0,17,25,151,17,108,116,134
AI09,0,0,37,224,0,13,7,114,64,8,184,281
